connectivity_matrix
…
Look at snapped dams that are now nodes

# See which nodes are dams 
net_with_dams %>% 
  activate("nodes") %>% 
  as_tibble() %>% 
  filter(is_dam == TRUE)

Simple feature collection with 60 features and 72 fields
Geometry type: POINT
Dimension:     XY
Bounding box:  xmin: 73.89375 ymin: 23.02569 xmax: 92.71458 ymax: 30.37343
Geodetic CRS:  WGS 84
# A tibble: 60 × 73
     hybas_id next_down  next_sink main_bas dist_sink dist_main sub_area up_area
 *      <dbl>     <dbl>      <dbl>    <dbl>     <dbl>     <dbl>    <dbl>   <dbl>
 1 4030025450         0 4030025450   4.03e9         0         0 1584745.  1.58e6
 2 4030025450         0 4030025450   4.03e9         0         0 1584745.  1.58e6
 3 4030025450         0 4030025450   4.03e9         0         0 1584745.  1.58e6
 4 4030025450         0 4030025450   4.03e9         0         0 1584745.  1.58e6
 5 4030025450         0 4030025450   4.03e9         0         0 1584745.  1.58e6
 6 4030025450         0 4030025450   4.03e9         0         0 1584745.  1.58e6
 7 4030025450         0 4030025450   4.03e9         0         0 1584745.  1.58e6
 8 4030025450         0 4030025450   4.03e9         0         0 1584745.  1.58e6
 9 4030025450         0 4030025450   4.03e9         0         0 1584745.  1.58e6
10 4030025450         0 4030025450   4.03e9         0         0 1584745.  1.58e6
# ℹ 50 more rows
# ℹ 65 more variables: pfaf_id <int>, endo <int>, coast <int>, order <int>,
#   sort <dbl>, grand_id <int>, res_name <chr>, dam_name <chr>, alt_name <chr>,
#   river <chr>, alt_river <chr>, main_basin <chr>, sub_basin <chr>,
#   near_city <chr>, alt_city <chr>, admin_unit <chr>, sec_admin <chr>,
#   country <chr>, sec_cntry <chr>, year <int>, alt_year <int>, rem_year <int>,
#   dam_hgt_m <int>, alt_hgt_m <int>, dam_len_m <int>, alt_len_m <int>, …
…
