trunk_id_exploration
…
Get list of hybas basins with area we can choose an appropriate sized one.

amazon_subbasins_lev4 %>%
  st_drop_geometry() %>% 
  select(
    hybas_id,
    sub_area   = any_of("sub_area"),
    up_area    = any_of("up_area"),
    
  ) %>%
  arrange(desc(coalesce(sub_area, up_area))) %>%  # largest first
  head(50)

# A tibble: 44 × 3
     hybas_id sub_area  up_area
        <dbl>    <dbl>    <dbl>
 1 6040280410 2216665. 2216711 
 2 6040285990 1368850. 1368850.
 3 6040814820 1159401. 1159401.
 4 6040280400  714738.  714738.
 5 6040239820  513292.  513314.
 6 6040262220  494533.  494551.
 7 6040262110  390551. 4696940 
 8 6040040470  326937.  326937.
 9 6040345000  308335.  308345.
10 6040029280  292390.  292390.
# ℹ 34 more rows
…
